孫復華 牧師;0228712121,2264;fuhwasun@yahoo.com.tw
彭浩靈 牧師;0228977702,103;jeremiah.ph@spfc.org.tw
蕭玉明 師母;0228977702;amyyu803@gmail.com
王榮耀 傳道;0228977702,102;wanglory@spfc.org.tw
林柔貝 師母;0228977702;linrobei@gmail.com
呂慧惠 傳道;0228977702;huier0220@spfc.org.tw
朱聖典 傳道;0228977702,202;dannychu0727@spfc.org.tw
蔡正岐 行政主任;0228977702,207;csiebug@spfc.org.tw
李慧蘋 出納;0228977702,208;hpinglee1110@spfc.org.tw
黃理詩 文書;0228977702,206;pupopn@spfc.org.tw
陳亮光 總務;0228977702,205;clk462586@spfc.org.tw
胡玳毓 總機;0228977702;emilyhu27@spfc.org.tw