Gen
Exo
Lev
Num
Deu
Jos
Jug
Rut
1Sa
2Sa
1Ki
2Ki
1Ch
2Ch
Ezr
Neh
Est
Job
Psm
Pro
Ecc
Son
Isa
Jer
Lam
Eze
Dan
Hos
Joe
Amo
Oba
Jon
Mic
Nah
Hab
Zep
Hag
Zec
Mal
Mat
Mak
Luk
Jhn
Act
Rom
1Co
2Co
Gal
Eph
Phl
Col
1Ts
2Ts
1Ti
2Ti
Tit
Phm
Heb
Jas
1Pe
2Pe
1Jn
2Jn
3Jn
Jud
Rev